\BOOKMARK [1][-]{section.1}{Demo 28.11}{}% 1
\BOOKMARK [1][-]{section.2}{Irish-Night 29.11}{}% 2
\BOOKMARK [1][-]{section.3}{Gl\374hweinverkauf 04. + 11. 18.12.}{}% 3
\BOOKMARK [1][-]{section.4}{Metverkauf beim stud. Weihnachtsmarkt 13.12.}{}% 4
\BOOKMARK [1][-]{section.5}{Weihnachtsfeier 11.12}{}% 5
\BOOKMARK [1][-]{section.6}{Silvesterparty}{}% 6
\BOOKMARK [1][-]{section.7}{Sonstiges}{}% 7
\BOOKMARK [1][-]{section.8}{Termin der n\344chsten Sitzung}{}% 8
