\relax 
\providecommand*\new@tpo@label[2]{}
\catcode `"\active 
\pgfsyspdfmark {pgfid1}{4736286}{50644710}
\babel@aux{ngerman}{}
\@writefile{toc}{\contentsline {section}{\numberline {1}Feedback RockN8}{1}}
\@writefile{toc}{\contentsline {section}{\numberline {2}IrishNight}{1}}
\@writefile{toc}{\contentsline {section}{\numberline {3}HalloweenParty in Cafe Wunderlich}{1}}
\@writefile{toc}{\contentsline {section}{\numberline {4}Mehr Werbung f\IeC {\"u}r Spieleabend?!}{1}}
\@writefile{toc}{\contentsline {section}{\numberline {5}Website/Server (eventuell Gruppenfoto}{1}}
\@writefile{toc}{\contentsline {section}{\numberline {6}KIF}{1}}
\pgfsyspdfmark {pgfid2}{4736286}{50644710}
\@writefile{toc}{\contentsline {section}{\numberline {7}Vollversammlung 13.11. mit anschlie\IeC {\ss }ender Diskussionsrunde}{2}}
\@writefile{toc}{\contentsline {section}{\numberline {8}Fachschaft User Experience (Sadik)}{2}}
\@writefile{toc}{\contentsline {section}{\numberline {9}Sonstiges}{2}}
\@writefile{toc}{\contentsline {section}{\numberline {10}Termin der n\IeC {\"a}chsten Sitzung}{2}}
