\relax 
\providecommand*\new@tpo@label[2]{}
\catcode `"\active 
\pgfsyspdfmark {pgfid1}{4736286}{50644710}
\babel@aux{ngerman}{}
\pgfsyspdfmark {pgfid2}{4736286}{50644710}
\@writefile{toc}{\contentsline {section}{\numberline {1}Begr\IeC {\"u}\IeC {\ss }ung}{2}}
\@writefile{toc}{\contentsline {section}{\numberline {2}Feststellung der Beschlussf\IeC {\"a}higkeit}{2}}
\@writefile{toc}{\contentsline {section}{\numberline {3}Sonstiges}{2}}
\pgfsyspdfmark {pgfid3}{4736286}{50644710}
\@writefile{toc}{\contentsline {section}{\numberline {4}Anwesenheit}{3}}
\global\@namedef{scr@dte@section@lastmaxnumwidth}{10.85587pt}
