\relax 
\providecommand*\new@tpo@label[2]{}
\catcode `"\active 
\pgfsyspdfmark {pgfid1}{4736286}{50644710}
\babel@aux{ngerman}{}
\@writefile{toc}{\contentsline {section}{\numberline {1}Vollversammlung}{1}}
\@writefile{toc}{\contentsline {section}{\numberline {2}Blubb-Ralley}{1}}
\@writefile{toc}{\contentsline {section}{\numberline {3}SCP}{1}}
\@writefile{toc}{\contentsline {section}{\numberline {4}F/EINes CTF}{1}}
\@writefile{toc}{\contentsline {section}{\numberline {5}Einladung zur KIF 31.10.2018 - 04.11.2018}{1}}
\pgfsyspdfmark {pgfid2}{4736286}{50644710}
\@writefile{toc}{\contentsline {section}{\numberline {6}Spieleabend}{2}}
\@writefile{toc}{\contentsline {section}{\numberline {7}Halloween Party 30.10.2018}{2}}
\@writefile{toc}{\contentsline {section}{\numberline {8}Rocknight 16.10.2018}{2}}
\@writefile{toc}{\contentsline {section}{\numberline {9}Termin der n\IeC {\"a}chsten Sitzung}{2}}
