\relax 
\providecommand*\new@tpo@label[2]{}
\catcode `"\active 
\pgfsyspdfmark {pgfid1}{4736286}{50644710}
\babel@aux{ngerman}{}
\@writefile{toc}{\contentsline {section}{\numberline {1}Halloween-Party}{1}}
\@writefile{toc}{\contentsline {section}{\numberline {2}Irish-Night}{1}}
\@writefile{toc}{\contentsline {section}{\numberline {3}Neue Veranstaltungen/Ausfl\IeC {\"u}ge}{1}}
\@writefile{toc}{\contentsline {section}{\numberline {4}Fachschaft User Experience (2. Versuch)}{1}}
\@writefile{toc}{\contentsline {section}{\numberline {5}Sonstiges}{1}}
\pgfsyspdfmark {pgfid2}{4736286}{50644710}
\@writefile{toc}{\contentsline {section}{\numberline {6}Termin der n\IeC {\"a}chsten Sitzung}{2}}
